{
  "name": "findYourWay : API pour appli client",
  "version": "0.1.0",
  "description": "API pour le jeu findYourWay",
  "title": "lbs : API",
  "sampleUrl": false,
  "apidoc": "0.2.0",
  "generator": {
    "name": "apidoc",
    "time": "2017-02-10T16:04:12.711Z",
    "url": "http://apidocjs.com",
    "version": "0.16.1"
  }
}
